273.106390 136.142848 -46.217341   2.000000
368.264879 205.905152 -75.544438   2.000000
473.407709 221.671040 -10.466822   2.000000
 53.762212 190.236057 -69.108177   2.000000
-12.641621 186.609271 -48.074172   2.000000
132.918409 211.926556   1.353375   2.000000
 96.457186 200.614004 -62.904108   2.000000
561.210144 129.029096   1.033963   2.000000
348.610541 206.199744  -7.047082   2.000000
388.930646 241.922316 -38.405581   2.000000
172.656709 198.080734 -43.835832   2.000000
719.482575 206.051710  -3.416355   2.000000
493.182399 178.274677 -66.178047   2.000000
330.560069 193.652191 -69.794696   2.000000
239.588631 217.431683  10.299462   2.000000
236.037618 130.768153 -57.968674   2.000000
393.177447 280.681333 -45.751356   2.000000
400.603953 119.140467 -38.845294   2.000000
594.397123 248.230886 -54.562844   2.000000
695.011912 201.452546 -68.114278   2.000000
