330.155823 136.142848 -46.217341   2.000000
381.640904 205.905152 -75.544438   2.000000
535.324712 221.671040 -10.466822   2.000000
 84.562734 190.236057 -69.108177   2.000000
 55.507205 186.609271 -48.074172   2.000000
179.324175 211.926556   1.353375   2.000000
140.880490 200.614004 -62.904108   2.000000
598.067809 129.029096   1.033963   2.000000
409.473367 206.199744  -7.047082   2.000000
449.071587 241.922316 -38.405581   2.000000
244.534141 198.080734 -43.835832   2.000000
  5.068322 206.051710  -3.416355   2.000000
530.731820 178.274677 -66.178047   2.000000
359.618228 193.652191 -69.794696   2.000000
266.164317 217.431683  10.299462   2.000000
277.904673 130.768153 -57.968674   2.000000
398.558796 280.681333 -45.751356   2.000000
446.792184 119.140467 -38.845294   2.000000
638.400095 248.230886 -54.562844   2.000000
727.930550 201.452546 -68.114278   2.000000
