216.056958 136.142848 -46.217341   2.000000
354.888853 205.905152 -75.544438   2.000000
411.490705 221.671040 -10.466822   2.000000
 22.961691 190.236057 -69.108177   2.000000
749.453420 186.609271 -48.074172   2.000000
 86.512644 211.926556   1.353375   2.000000
 52.033882 200.614004 -62.904108   2.000000
524.352479 129.029096   1.033963   2.000000
287.747716 206.199744  -7.047082   2.000000
328.789705 241.922316 -38.405581   2.000000
100.779278 198.080734 -43.835832   2.000000
664.028543 206.051710  -3.416355   2.000000
455.632978 178.274677 -66.178047   2.000000
301.501910 193.652191 -69.794696   2.000000
213.012944 217.431683  10.299462   2.000000
194.170564 130.768153 -57.968674   2.000000
387.796097 280.681333 -45.751356   2.000000
354.415722 119.140467 -38.845294   2.000000
550.394151 248.230886 -54.562844   2.000000
662.093273 201.452546 -68.114278   2.000000
