387.205255 136.142848 -46.217341   2.000000
395.016930 205.905152 -75.544438   2.000000
597.241716 221.671040 -10.466822   2.000000
115.363255 190.236057 -69.108177   2.000000
123.656032 186.609271 -48.074172   2.000000
225.729940 211.926556   1.353375   2.000000
185.303794 200.614004 -62.904108   2.000000
634.925474 129.029096   1.033963   2.000000
470.336192 206.199744  -7.047082   2.000000
509.212527 241.922316 -38.405581   2.000000
316.411573 198.080734 -43.835832   2.000000
 60.522354 206.051710  -3.416355   2.000000
568.281241 178.274677 -66.178047   2.000000
388.676387 193.652191 -69.794696   2.000000
292.740004 217.431683  10.299462   2.000000
319.771728 130.768153 -57.968674   2.000000
403.940146 280.681333 -45.751356   2.000000
492.980415 119.140467 -38.845294   2.000000
682.403066 248.230886 -54.562844   2.000000
-78.114278 201.452546 -68.114278   2.000000
